…
```
## See spec(...) for full column specifications.
```

```r
dc
```

```
## # A tibble: 463 x 21
##    score rank  ethnicity gender language   age cls_perc_eval cls_did_eval
##    <dbl> <chr> <chr>     <chr>  <chr>    <dbl>         <dbl>        <dbl>
##  1   4.7 tenu~ minority  female english     36          55.8           24
##  2   4.1 tenu~ minority  female english     36          68.8           86
##  3   3.9 tenu~ minority  female english     36          60.8           76
##  4   4.8 tenu~ minority  female english     36          62.6           77
##  5   4.6 tenu~ not mino~ male   english     59          85             17
##  6   4.3 tenu~ not mino~ male   english     59          87.5           35
##  7   2.8 tenu~ not mino~ male   english     59          88.6           39
##  8   4.1 tenu~ not mino~ male   english     51         100             55
##  9   3.4 tenu~ not mino~ male   english     51          56.9          111
## 10   4.5 tenu~ not mino~ female english     40          87.0           40
## # ... with 453 more rows, and 13 more variables: cls_students <dbl>,
## #   cls_level <chr>, cls_profs <chr>, cls_credits <chr>,
## #   bty_f1lower <dbl>, bty_f1upper <dbl>, bty_f2upper <dbl>,
## #   bty_m1lower <dbl>, bty_m1upper <dbl>, bty_m2upper <dbl>,
## #   bty_avg <dbl>, pic_outfit <chr>, pic_color <chr>
```
…
## Functions
Function:

```r
dc # mencetak data di konsol
```

```
## # A tibble: 463 x 21
##    score rank  ethnicity gender language   age cls_perc_eval cls_did_eval
##    <dbl> <chr> <chr>     <chr>  <chr>    <dbl>         <dbl>        <dbl>
##  1   4.7 tenu~ minority  female english     36          55.8           24
##  2   4.1 tenu~ minority  female english     36          68.8           86
##  3   3.9 tenu~ minority  female english     36          60.8           76
##  4   4.8 tenu~ minority  female english     36          62.6           77
##  5   4.6 tenu~ not mino~ male   english     59          85             17
##  6   4.3 tenu~ not mino~ male   english     59          87.5           35
##  7   2.8 tenu~ not mino~ male   english     59          88.6           39
##  8   4.1 tenu~ not mino~ male   english     51         100             55
##  9   3.4 tenu~ not mino~ male   english     51          56.9          111
## 10   4.5 tenu~ not mino~ female english     40          87.0           40
## # ... with 453 more rows, and 13 more variables: cls_students <dbl>,
## #   cls_level <chr>, cls_profs <chr>, cls_credits <chr>,
## #   bty_f1lower <dbl>, bty_f1upper <dbl>, bty_f2upper <dbl>,
## #   bty_m1lower <dbl>, bty_m1upper <dbl>, bty_m2upper <dbl>,
## #   bty_avg <dbl>, pic_outfit <chr>, pic_color <chr>
```
…
```r
dc[ ,2] # subset atau ekstrak data pada kolom 2
```

```
## # A tibble: 463 x 1
##    rank        
##    <chr>       
##  1 tenure track
##  2 tenure track
##  3 tenure track
##  4 tenure track
##  5 tenured     
##  6 tenured     
##  7 tenured     
##  8 tenured     
##  9 tenured     
## 10 tenured     
## # ... with 453 more rows
```
…
```r
library(tidyr)
```

```
## Warning: package 'tidyr' was built under R version 3.5.3
```

```r
dc
```

```
## # A tibble: 463 x 21
##    score rank  ethnicity gender language   age cls_perc_eval cls_did_eval
##    <dbl> <chr> <chr>     <chr>  <chr>    <dbl>         <dbl>        <dbl>
##  1   4.7 tenu~ minority  female english     36          55.8           24
##  2   4.1 tenu~ minority  female english     36          68.8           86
##  3   3.9 tenu~ minority  female english     36          60.8           76
##  4   4.8 tenu~ minority  female english     36          62.6           77
##  5   4.6 tenu~ not mino~ male   english     59          85             17
##  6   4.3 tenu~ not mino~ male   english     59          87.5           35
##  7   2.8 tenu~ not mino~ male   english     59          88.6           39
##  8   4.1 tenu~ not mino~ male   english     51         100             55
##  9   3.4 tenu~ not mino~ male   english     51          56.9          111
## 10   4.5 tenu~ not mino~ female english     40          87.0           40
## # ... with 453 more rows, and 13 more variables: cls_students <dbl>,
## #   cls_level <chr>, cls_profs <chr>, cls_credits <chr>,
## #   bty_f1lower <dbl>, bty_f1upper <dbl>, bty_f2upper <dbl>,
## #   bty_m1lower <dbl>, bty_m1upper <dbl>, bty_m2upper <dbl>,
## #   bty_avg <dbl>, pic_outfit <chr>, pic_color <chr>
```

```r
tb <- dc%>%
      select(gender,age)

tb
```

```
## # A tibble: 463 x 2
##    gender   age
##    <chr>  <dbl>
##  1 female    36
##  2 female    36
##  3 female    36
##  4 female    36
##  5 male      59
##  6 male      59
##  7 male      59
##  8 male      51
##  9 male      51
## 10 female    40
## # ... with 453 more rows
```
